current directory: /home/hippo/Coursera/RubyOnRails/Course1_AnIntroduction/sandbox/my_first_app/path/ruby/2.2.0/gems/nio4r-2.3.0/ext/nio4r
/usr/bin/ruby22 -r ./siteconf20180402-13747-1lpc771.rb extconf.rb
checking for unistd.h... yes
checking for sys/select.h... yes
checking for port_event_t in poll.h... no
checking for sys/epoll.h... yes
checking for sys/event.h... no
checking for port_event_t in port.h... no
checking for sys/resource.h... yes
creating Makefile

current directory: /home/hippo/Coursera/RubyOnRails/Course1_AnIntroduction/sandbox/my_first_app/path/ruby/2.2.0/gems/nio4r-2.3.0/ext/nio4r
make "DESTDIR=" clean

current directory: /home/hippo/Coursera/RubyOnRails/Course1_AnIntroduction/sandbox/my_first_app/path/ruby/2.2.0/gems/nio4r-2.3.0/ext/nio4r
make "DESTDIR="
compiling bytebuffer.c
compiling selector.c
selector.c: In function ‘NIO_Selector_wakeup’:
selector.c:484:5: warning: ignoring return value of ‘write’, declared with attribute warn_unused_result [-Wunused-result]
     write(selector->wakeup_writer, "\0", 1);
     ^~~~~~~~~~~~~~~~~~~~~~~~~~~~~~~~~~~~~~~
compiling nio4r_ext.c
In file included from nio4r_ext.c:7:0:
../libev/ev.c:1836:31: warning: ‘ev_default_loop_ptr’ initialized and declared ‘extern’
   EV_API_DECL struct ev_loop *ev_default_loop_ptr = 0; /* needs to be initialised to make it a definition despite extern */
                               ^~~~~~~~~~~~~~~~~~~
In file included from nio4r_ext.c:7:0:
../libev/ev.c: In function ‘ev_run’:
../libev/ev.c:3750:36: warning: passing argument 1 of ‘rb_thread_call_without_gvl’ from incompatible pointer type [-Wincompatible-pointer-types]
         rb_thread_call_without_gvl(ev_backend_poll, (void *)&poll_args, RUBY_UBF_IO, 0);
                                    ^~~~~~~~~~~~~~~
In file included from ../libev/ev.c:42:0,
                 from nio4r_ext.c:7:
/usr/include/ruby-2.2.0/ruby/thread.h:28:7: note: expected ‘void * (*)(void *)’ but argument is of type ‘VALUE (*)(void *) {aka long unsigned int (*)(void *)}’
 void *rb_thread_call_without_gvl(void *(*func)(void *), void *data1,
       ^~~~~~~~~~~~~~~~~~~~~~~~~~
In file included from /usr/include/ruby-2.2.0/ruby/ruby.h:36:0,
                 from /usr/include/ruby-2.2.0/ruby.h:33,
                 from nio4r.h:9,
                 from nio4r_ext.c:6:
nio4r_ext.c: In function ‘Init_nio4r_ext’:
/usr/include/ruby-2.2.0/ruby/defines.h:111:18: warning: passing argument 1 of ‘ev_set_allocator’ from incompatible pointer type [-Wincompatible-pointer-types]
 #define xrealloc ruby_xrealloc
                  ^
nio4r_ext.c:15:22: note: in expansion of macro ‘xrealloc’
     ev_set_allocator(xrealloc);
                      ^~~~~~~~
In file included from nio4r_ext.c:7:0:
../libev/ev.c:1738:1: note: expected ‘void * (*)(void *, long int)’ but argument is of type ‘void * (*)(void *, size_t) {aka void * (*)(void *, long unsigned int)}’
 ev_set_allocator (void *(*cb)(void *ptr, long size) EV_THROW) EV_THROW
 ^~~~~~~~~~~~~~~~
In file included from nio4r_ext.c:7:0:
../libev/ev.c: In function ‘evpipe_write’:
../libev/ev.c:2473:11: warning: ignoring return value of ‘write’, declared with attribute warn_unused_result [-Wunused-result]
           write (evpipe [1], &counter, sizeof (uint64_t));
           ^~~~~~~~~~~~~~~~~~~~~~~~~~~~~~~~~~~~~~~~~~~~~~~
../libev/ev.c:2485:11: warning: ignoring return value of ‘write’, declared with attribute warn_unused_result [-Wunused-result]
           write (evpipe [1], &(evpipe [1]), 1);
           ^~~~~~~~~~~~~~~~~~~~~~~~~~~~~~~~~~~~
../libev/ev.c: In function ‘pipecb’:
../libev/ev.c:2506:11: warning: ignoring return value of ‘read’, declared with attribute warn_unused_result [-Wunused-result]
           read (evpipe [1], &counter, sizeof (uint64_t));
           ^~~~~~~~~~~~~~~~~~~~~~~~~~~~~~~~~~~~~~~~~~~~~~
../libev/ev.c:2520:11: warning: ignoring return value of ‘read’, declared with attribute warn_unused_result [-Wunused-result]
           read (evpipe [0], &dummy, sizeof (dummy));
           ^~~~~~~~~~~~~~~~~~~~~~~~~~~~~~~~~~~~~~~~~
compiling monitor.c
linking shared-object nio4r_ext.so

current directory: /home/hippo/Coursera/RubyOnRails/Course1_AnIntroduction/sandbox/my_first_app/path/ruby/2.2.0/gems/nio4r-2.3.0/ext/nio4r
make "DESTDIR=" install
/usr/bin/install -c -m 0755 nio4r_ext.so ./.gem.20180402-13747-1t403oy
